{"failedCount":0,"prefixedPath":"src\/test\/resources\/karate\/crudusers.feature","packageQualifiedName":"src.test.resources.karate.crudusers","loopIndex":-1,"relativePath":"src\/test\/resources\/karate\/crudusers.feature","scenarioResults":[{"sectionIndex":0,"stepResults":[{"result":{"nanos":6586900,"millis":6.5869,"status":"passed"},"step":{"background":true,"line":7,"prefix":"*","index":0,"text":"url api.uri"}},{"result":{"nanos":58499800,"millis":58.4998,"status":"passed"},"step":{"background":true,"line":8,"prefix":"*","index":1,"text":"configure driver = { type: 'classPath', encoding: 'utf-8', package: 'utils' }"}},{"result":{"nanos":8965300,"millis":8.9653,"status":"passed"},"step":{"background":true,"line":9,"prefix":"*","index":2,"text":"def miClass = Java.type('utils.Data')"}},{"result":{"nanos":14646700,"millis":14.6467,"status":"passed"},"step":{"background":true,"line":10,"prefix":"*","index":3,"text":"def miObjet = new miClass()"}},{"result":{"nanos":5534800,"millis":5.5348,"status":"passed"},"step":{"background":true,"line":11,"prefix":"*","index":4,"text":"def miVariable = miObjet.numberRandom"}},{"result":{"nanos":788400,"millis":0.7884,"status":"passed"},"step":{"line":14,"prefix":"Given","index":0,"text":"path '\/users?page=\"miVariable\"'"}},{"result":{"nanos":4161220400,"millis":4161.2204,"status":"passed"},"step":{"line":15,"prefix":"When","index":1,"text":"method GET"},"stepLog":"16:33:44.951 request:\n1 > GET https:\/\/reqres.in\/api\/users%3Fpage=%22miVariable%22\n1 > Host: reqres.in\n1 > Connection: Keep-Alive\n1 > User-Agent: Apache-HttpClient\/4.5.13 (Java\/17.0.10)\n1 > Accept-Encoding: gzip,deflate\n\n\n16:33:48.993 response time in milliseconds: 4038\n1 < 200\n1 < Date: Sun, 28 Apr 2024 21:33:53 GMT\n1 < Content-Type: application\/json; charset=utf-8\n1 < Transfer-Encoding: chunked\n1 < Connection: keep-alive\n1 < Report-To: {\"group\":\"heroku-nel\",\"max_age\":3600,\"endpoints\":[{\"url\":\"https:\/\/nel.heroku.com\/reports?ts=1714340033&sid=c4c9725f-1ab0-44d8-820f-430df2718e11&s=zrTOZfXFFh9OVcdXAsWkvuDn%2Fk26chgVRVsyBIz6tvg%3D\"}]}\n1 < Reporting-Endpoints: heroku-nel=https:\/\/nel.heroku.com\/reports?ts=1714340033&sid=c4c9725f-1ab0-44d8-820f-430df2718e11&s=zrTOZfXFFh9OVcdXAsWkvuDn%2Fk26chgVRVsyBIz6tvg%3D\n1 < Nel: {\"report_to\":\"heroku-nel\",\"max_age\":3600,\"success_fraction\":0.005,\"failure_fraction\":0.05,\"response_headers\":[\"Via\"]}\n1 < X-Powered-By: Express\n1 < Access-Control-Allow-Origin: *\n1 < Etag: W\/\"2c1-N6Rqerxquq2kgQhL51EiSg4x0R8\"\n1 < Via: 1.1 vegur\n1 < Cache-Control: max-age=14400\n1 < CF-Cache-Status: MISS\n1 < Vary: Accept-Encoding\n1 < Server: cloudflare\n1 < CF-RAY: 87ba2c58fc50da9b-MIA\n{\"page\":1,\"per_page\":6,\"total\":12,\"total_pages\":2,\"data\":[{\"id\":1,\"name\":\"cerulean\",\"year\":2000,\"color\":\"#98B2D1\",\"pantone_value\":\"15-4020\"},{\"id\":2,\"name\":\"fuchsia rose\",\"year\":2001,\"color\":\"#C74375\",\"pantone_value\":\"17-2031\"},{\"id\":3,\"name\":\"true red\",\"year\":2002,\"color\":\"#BF1932\",\"pantone_value\":\"19-1664\"},{\"id\":4,\"name\":\"aqua sky\",\"year\":2003,\"color\":\"#7BC4C4\",\"pantone_value\":\"14-4811\"},{\"id\":5,\"name\":\"tigerlily\",\"year\":2004,\"color\":\"#E2583E\",\"pantone_value\":\"17-1456\"},{\"id\":6,\"name\":\"blue turquoise\",\"year\":2005,\"color\":\"#53B0AE\",\"pantone_value\":\"15-5217\"}],\"support\":{\"url\":\"https:\/\/reqres.in\/#support-heading\",\"text\":\"To keep ReqRes free, contributions towards server costs are appreciated!\"}}\n\n"},{"result":{"nanos":47200,"millis":0.0472,"status":"passed"},"step":{"line":16,"prefix":"Then","index":2,"text":"status 200"}},{"result":{"nanos":7737100,"millis":7.7371,"status":"passed"},"step":{"line":17,"prefix":"*","index":3,"text":"print response"},"stepLog":"16:33:49.009 [print] {\n  \"page\": 1,\n  \"per_page\": 6,\n  \"total\": 12,\n  \"total_pages\": 2,\n  \"data\": [\n    {\n      \"id\": 1,\n      \"name\": \"cerulean\",\n      \"year\": 2000,\n      \"color\": \"#98B2D1\",\n      \"pantone_value\": \"15-4020\"\n    },\n    {\n      \"id\": 2,\n      \"name\": \"fuchsia rose\",\n      \"year\": 2001,\n      \"color\": \"#C74375\",\n      \"pantone_value\": \"17-2031\"\n    },\n    {\n      \"id\": 3,\n      \"name\": \"true red\",\n      \"year\": 2002,\n      \"color\": \"#BF1932\",\n      \"pantone_value\": \"19-1664\"\n    },\n    {\n      \"id\": 4,\n      \"name\": \"aqua sky\",\n      \"year\": 2003,\n      \"color\": \"#7BC4C4\",\n      \"pantone_value\": \"14-4811\"\n    },\n    {\n      \"id\": 5,\n      \"name\": \"tigerlily\",\n      \"year\": 2004,\n      \"color\": \"#E2583E\",\n      \"pantone_value\": \"17-1456\"\n    },\n    {\n      \"id\": 6,\n      \"name\": \"blue turquoise\",\n      \"year\": 2005,\n      \"color\": \"#53B0AE\",\n      \"pantone_value\": \"15-5217\"\n    }\n  ],\n  \"support\": {\n    \"url\": \"https:\/\/reqres.in\/#support-heading\",\n    \"text\": \"To keep ReqRes free, contributions towards server costs are appreciated!\"\n  }\n}\n \n"}],"executorName":"main","line":13,"name":"Test GET 1","description":"","durationMillis":4264.0266,"startTime":1714340024185,"failed":false,"refId":"[1:13]","endTime":1714340029009,"exampleIndex":-1}],"callDepth":0,"name":"As a user, I need to make a crud","description":"","resultDate":"2024-04-28 04:33:49 p. m.","durationMillis":4264.0266,"passedCount":1}